#CN_SNAME
#中文单名词库
敏
伟
勇
军
斌
静
丽
涛
芳
杰
萍
强
俊
明
燕
磊
玲
华
平
鹏
健
波
红
丹
辉
超
艳
莉
刚
娟
峰
婷
亮
洁
颖
琳
英
慧
飞
霞
浩
凯
宇
毅
林
佳
云
莹
娜
晶
洋
文
鑫
欣
琴
宁
琼
兵
青
琦
翔
彬
锋
阳
璐
旭
蕾
剑
虹
蓉
建
倩
梅
宏
威
博
君
力
龙
晨
薇
雪
琪
欢
荣
江
炜
成
庆
冰
东
帆
雷
楠
锐
进
海
凡
巍
维
迪
媛
玮
杨
群
瑛
悦
春
瑶
婧
兰
茜
松
爽
立
瑜
睿
晖
聪
帅
瑾
骏
雯
晓
昊
勤
新
瑞
岩
星
忠
志
怡
坤
康
航
利
畅
坚
雄
智
萌
哲
岚
洪
捷
珊
恒
靖
清
扬
昕
乐
武
玉
诚
菲
锦
凤
珍
晔
妍
璇
胜
菁
科
芬
露
越
彤
曦
义
良
鸣
芸
方
月
铭
光
震
冬
源
政
虎
莎
彪
蓓
钢
凌
奇
卫
彦
烨
可
黎
川
淼
惠
祥
然
三
逗
高
潇
正
硕
