问下*
吼吼*
请教*
请问*
给我说说*
那么*
谢谢*
如果*
你能告诉我*
请问下*
麻烦你*
麻烦您*
关于*
问一下*
我不知道*
我不了解*
我不清楚*
我搞不清楚*
请教一下*
请教下*
可以帮我*
你好*
麻烦帮我*
嗯*
恩*
解释下*
给我解释下*
能给我解释下*
帮我*
给我*
*啊
*阿
*呐
*呢
*呀
*哑
*哦
*噢
*喔
*呦
*啦
*丫
*吧
*伐
*吼吼
*快回答
*的吗
