名
个
位
只
匹
头
峰
枚
具
棵
株
根
枝
支
管
条
道
面
片
张
领
颗
粒
块
方
朵
轮
茎
缕
份
把
部
台
出
堂
节
盘
贴
帖
剂
服
味
付
顶
座
栋
幢
扇
堵
间
处
所
辆
架
艘
趟
副
爿
片
手
件
桩
宗
项
笔
通
顿
场
阵
记
喷
则
封
首
篇
幅
本
发
门
家
盏
口
孔
尊
股
席